2.4 What is the history of bidding for world cup? | Fifa worldcup 2022
…
            Fifa worldcup 2022

2.4 What is the history of bidding for world cup?

Now let us shift our focus to yet another interesting question. In this section we will explore the bidding history to host the world cup.

Let’s start by making a bar-plot that show the number of successful bids for each country of all submitted bids.

First, sort the countries based on the number of bids, then the times hosted.

(bar_bid_df1 <- tbls_lst$total_bids_by_country %>% 
  arrange(bids,times_hosted) %>% 
  mutate(country = factor(country, levels = (country))) )

## # A tibble: 35 × 4
##    country   bids years   times_hosted
##    <fct>    <int> <chr>          <dbl>
##  1 Austria      1 1990               0
##  2 Belgium      1 2018[f]            0
##  3 Egypt        1 2010               0
##  4 Greece       1 1990               0
##  5 Hungary      1 1930               0
##  6 Iran         1 1990               0
##  7 Libya        1 2010[h]            0
##  8 Nigeria      1 2010               0
##  9 Peru         1 1970               0
## 10 Portugal     1 2018[d]            0
## # … with 25 more rows
…
