1.1 Where and how can we get the data? | Fifa worldcup 2022
…
#old inconsistent names
cols_old <- c("country", "team", "host_nation_s")
#new column name
col_new <- "country_name"
#apply the replacement
(tbls_lst <- lapply(tbls_lst, function(tbl){
  tbl %>%
    rename_with(~ ifelse(.x %in% cols_old,
                         col_new,
                         .x))
  }))

## $list_of_hosts
## # A tibble: 25 × 3
##     year country_name                      continent                        
##    <int> <chr>                             <chr>                            
##  1  1930 Uruguay                           South America                    
##  2  1934 Italy                             Europe                           
##  3  1938 France                            Europe                           
##  4  1942 Cancelled because of World War II Cancelled because of World War II
##  5  1946 Cancelled because of World War II Cancelled because of World War II
##  6  1950 Brazil                            South America                    
##  7  1954 Switzerland                       Europe                           
##  8  1958 Sweden                            Europe                           
##  9  1962 Chile                             South America                    
## 10  1966 England                           Europe                           
## # … with 15 more rows
## 
## $total_bids_by_country
## # A tibble: 35 × 4
##    country_name   bids years                                             times…¹
##    <chr>         <int> <chr>                                               <int>
##  1 Germany           8 1938, 1962,[a] 1966,[a]1974,[a]1982,[a]1990,[a]1…       2
##  2 Argentina         5 1938, 1962, 1970, 1978, 2014                            1
##  3 England           5 1966, 1990, 1998, 2006, 2018                            1
##  4 Italy             5 1930, 1934, 1974, 1982, 1990                            2
##  5 Mexico            5 1970, 1978, 1986,[b] 2002, 2026[c]                      3
##  6 Morocco           5 1994, 1998, 2006, 2010, 2026                            0
##  7 Spain             5 1930, 1966, 1974, 1982, 2018[d]                         1
##  8 Brazil            4 1950, 1994, 2006, 2014                                  2
##  9 Colombia          4 1970, 1978, 1986,[b]2014                                1
## 10 United States     4 1986, 1994, 2022, 2026[c]                               2
## # … with 25 more rows, and abbreviated variable name ¹​times_hosted
## 
## $host_country_performances
## # A tibble: 26 × 11
##     year country_name result     note    pld     w     d     l    gf    ga gd   
##    <int> <chr>        <chr>      <chr> <int> <int> <int> <int> <int> <int> <chr>
##  1  1930 Uruguay      Champions  Best…     4     4     0     0    15     3 +12  
##  2  1934 Italy        Champions  Best…     5     4     1     0    12     3 +9   
##  3  1938 France       Quarter-f… Best…     2     1     0     1     4     4 0    
##  4  1950 Brazil       Runners-up Best…     6     4     1     1    22     6 +16  
##  5  1954 Switzerland  Quarter-f… Equa…     4     2     0     2    11    11 0    
##  6  1958 Sweden       Runners-up Best…     6     4     1     1    12     7 +5   
##  7  1962 Chile        Third pla… Best…     6     4     0     2    10     8 +2   
##  8  1966 England      Champions  Best…     6     5     1     0    11     3 +8   
##  9  1970 Mexico       Quarter-f… Best…     4     2     1     1     6     4 +2   
## 10  1974 West Germany Champions  Equa…     7     6     0     1    13     4 +9   
## # … with 16 more rows

Similarly, the year column is called “years” in the second table. Let’s make it consistent with the other tables and rename it to “year”.

tbls_lst$total_bids_by_country <- tbls_lst$total_bids_by_country %>% 
  dplyr::rename(year = "years")

Next, we need to insure that the data is “tidy”. Obviously, this is not the case for the table below where the column column “years” show mutliple dates concatenated in the same row

tbls_lst$total_bids_by_country

## # A tibble: 35 × 4
##    country_name   bids year                                              times…¹
##    <chr>         <int> <chr>                                               <int>
##  1 Germany           8 1938, 1962,[a] 1966,[a]1974,[a]1982,[a]1990,[a]1…       2
##  2 Argentina         5 1938, 1962, 1970, 1978, 2014                            1
##  3 England           5 1966, 1990, 1998, 2006, 2018                            1
##  4 Italy             5 1930, 1934, 1974, 1982, 1990                            2
##  5 Mexico            5 1970, 1978, 1986,[b] 2002, 2026[c]                      3
##  6 Morocco           5 1994, 1998, 2006, 2010, 2026                            0
##  7 Spain             5 1930, 1966, 1974, 1982, 2018[d]                         1
##  8 Brazil            4 1950, 1994, 2006, 2014                                  2
##  9 Colombia          4 1970, 1978, 1986,[b]2014                                1
## 10 United States     4 1986, 1994, 2022, 2026[c]                               2
## # … with 25 more rows, and abbreviated variable name ¹​times_hosted

what we need to do is to split years of bids into separate entries and convert it to numeric

#separate concatenated years into separate rows
(tbls_lst$total_bids_by_country <- tbls_lst$total_bids_by_country %>% 
  mutate(year = str_extract_all(year, "[0-9]+")) %>% 
  unnest(year) %>% 
  mutate(year = as.numeric(year)))

## # A tibble: 90 × 4
##    country_name  bids  year times_hosted
##    <chr>        <int> <dbl>        <int>
##  1 Germany          8  1938            2
##  2 Germany          8  1962            2
##  3 Germany          8  1966            2
##  4 Germany          8  1974            2
##  5 Germany          8  1982            2
##  6 Germany          8  1990            2
##  7 Germany          8  1998            2
##  8 Germany          8  2006            2
##  9 Argentina        5  1938            1
## 10 Argentina        5  1962            1
## # … with 80 more rows
…
## Warning in countrycode_convert(sourcevar = sourcevar, origin = origin, destination = dest, : Some values were not matched unambiguously: Cancelled because of World War II, England

## Warning in countrycode_convert(sourcevar = sourcevar, origin = origin, destination = dest, : Some values were not matched unambiguously: England, Yugoslavia

## Warning in countrycode_convert(sourcevar = sourcevar, origin = origin, destination = dest, : Some values were not matched unambiguously: England

## $list_of_hosts
## # A tibble: 28 × 4
##    host_year country_name                      continent                 count…¹
##        <int> <chr>                             <chr>                     <chr>  
##  1      1930 Uruguay                           South America             UY     
##  2      1934 Italy                             Europe                    IT     
##  3      1938 France                            Europe                    FR     
##  4      1942 Cancelled because of World War II Cancelled because of Wor… <NA>   
##  5      1946 Cancelled because of World War II Cancelled because of Wor… <NA>   
##  6      1950 Brazil                            South America             BR     
##  7      1954 Switzerland                       Europe                    CH     
##  8      1958 Sweden                            Europe                    SE     
##  9      1962 Chile                             South America             CL     
## 10      1966 England                           Europe                    <NA>   
## # … with 18 more rows, and abbreviated variable name ¹​country_code
## 
## $total_bids_by_country
## # A tibble: 90 × 5
##    country_name  bids  year times_hosted country_code
##    <chr>        <int> <dbl>        <int> <chr>       
##  1 Germany          8  1938            2 DE          
##  2 Germany          8  1962            2 DE          
##  3 Germany          8  1966            2 DE          
##  4 Germany          8  1974            2 DE          
##  5 Germany          8  1982            2 DE          
##  6 Germany          8  1990            2 DE          
##  7 Germany          8  1998            2 DE          
##  8 Germany          8  2006            2 DE          
##  9 Argentina        5  1938            1 AR          
## 10 Argentina        5  1962            1 AR          
## # … with 80 more rows
## 
## $host_country_performances
## # A tibble: 26 × 12
##     year countr…¹ result note    pld     w     d     l    gf    ga gd    count…²
##    <int> <chr>    <fct>  <chr> <int> <int> <int> <int> <int> <int> <chr> <chr>  
##  1  1930 Uruguay  Champ… Best…     4     4     0     0    15     3 +12   UY     
##  2  1934 Italy    Champ… Best…     5     4     1     0    12     3 +9    IT     
##  3  1938 France   Quart… Best…     2     1     0     1     4     4 0     FR     
##  4  1950 Brazil   Runne… Best…     6     4     1     1    22     6 +16   BR     
##  5  1954 Switzer… Quart… Equa…     4     2     0     2    11    11 0     CH     
##  6  1958 Sweden   Runne… Best…     6     4     1     1    12     7 +5    SE     
##  7  1962 Chile    Third… Best…     6     4     0     2    10     8 +2    CL     
##  8  1966 England  Champ… Best…     6     5     1     0    11     3 +8    <NA>   
##  9  1970 Mexico   Quart… Best…     4     2     1     1     6     4 +2    MX     
## 10  1974 West Ge… Champ… Equa…     7     6     0     1    13     4 +9    DE     
## # … with 16 more rows, and abbreviated variable names ¹​country_name,
## #   ²​country_code
…
